<svg viewBox="0 0 640 480" xmlns="http://www.w3.org/2000/svg">
<rect fill="#1F1F1F" height="480" opacity="1" stroke="none" width="640" x="0" y="0"/>
<text fill="#BFBFBF" font-famliy="Arial" font-size="30" opacity="1" x="211" y="30">
3-SAT satisfiability
</text>
<text fill="#BFBFBF" font-famliy="Arial" font-size="16" opacity="1" x="328" y="474">
M / N
</text>
<text fill="#BFBFBF" font-famliy="Arial" font-size="16" opacity="1" transform="rotate(270, 5, 273)" x="5" y="284">
% satisfiable
</text>
<polyline fill="none" opacity="1" points="55,425 635,425 " stroke="#BFBFBF"/>
<polyline fill="none" opacity="1" points="150,425 150,430 " stroke="#BFBFBF"/>
<text fill="#BFBFBF" font-famliy="Arial" font-size="16" opacity="1" x="148" y="446">
1
</text>
<polyline fill="none" opacity="1" points="245,425 245,430 " stroke="#BFBFBF"/>
<text fill="#BFBFBF" font-famliy="Arial" font-size="16" opacity="1" x="241" y="446">
2
</text>
<polyline fill="none" opacity="1" points="340,425 340,430 " stroke="#BFBFBF"/>
<text fill="#BFBFBF" font-famliy="Arial" font-size="16" opacity="1" x="336" y="446">
3
</text>
<polyline fill="none" opacity="1" points="435,425 435,430 " stroke="#BFBFBF"/>
<text fill="#BFBFBF" font-famliy="Arial" font-size="16" opacity="1" x="431" y="446">
4
</text>
<polyline fill="none" opacity="1" points="530,425 530,430 " stroke="#BFBFBF"/>
<text fill="#BFBFBF" font-famliy="Arial" font-size="16" opacity="1" x="526" y="446">
5
</text>
<polyline fill="none" opacity="1" points="625,425 625,430 " stroke="#BFBFBF"/>
<text fill="#BFBFBF" font-famliy="Arial" font-size="16" opacity="1" x="621" y="446">
6
</text>
<polyline fill="none" opacity="1" points="55,41 55,425 " stroke="#BFBFBF"/>
<text fill="#BFBFBF" font-famliy="Arial" font-size="16" opacity="1" x="25" y="238">
0.5
</text>
<polyline fill="none" opacity="1" points="50,233 55,233 " stroke="#BFBFBF"/>
<text fill="#BFBFBF" font-famliy="Arial" font-size="16" opacity="1" x="26" y="46">
1.0
</text>
<polyline fill="none" opacity="1" points="50,41 55,41 " stroke="#BFBFBF"/>
<polyline fill="none" opacity="1" points="74,41 93,41 112,41 131,41 150,41 169,41 188,41 207,41 226,41 245,41 264,41 283,41 302,41 321,41 340,41 359,41 378,41 397,53 416,79 435,105 454,181 473,161 492,240 511,245 530,291 549,330 568,368 587,394 606,391 625,404 " stroke="#E6194B"/>
<polyline fill="none" opacity="1" points="74,41 93,41 112,41 131,41 150,41 169,41 188,41 207,41 226,41 245,41 264,41 283,41 302,41 321,41 340,41 359,41 378,43 397,46 416,51 435,122 454,186 473,233 492,304 511,322 530,384 549,409 568,414 587,414 606,425 625,419 " stroke="#3CB44B"/>
<polyline fill="none" opacity="1" points="74,41 93,41 112,41 131,41 150,41 169,41 188,41 207,41 226,41 245,41 264,41 283,41 302,41 321,41 340,41 359,41 378,41 397,41 416,51 435,76 454,169 473,268 492,348 511,386 530,409 549,422 568,422 587,425 606,425 625,425 " stroke="#FFE119"/>
<polyline fill="none" opacity="1" points="74,41 93,41 112,41 131,41 150,41 169,41 188,41 207,41 226,41 245,41 264,41 283,41 302,41 321,41 340,41 359,41 378,41 397,41 416,41 435,89 454,171 473,302 492,376 511,404 530,419 549,422 568,425 587,425 606,425 625,425 " stroke="#0082C8"/>
<polyline fill="none" opacity="1" points="74,41 93,41 112,41 131,41 150,41 169,41 188,41 207,41 226,41 245,41 264,41 283,41 302,41 321,41 340,41 359,41 378,41 397,41 416,43 435,81 454,186 473,289 492,381 511,409 530,422 549,425 568,425 587,425 606,425 625,425 " stroke="#F58230"/>
<polyline fill="none" opacity="1" points="74,41 93,41 112,41 131,41 150,41 169,41 188,41 207,41 226,41 245,41 264,41 283,41 302,41 321,41 340,41 359,41 378,41 397,41 416,41 435,64 454,148 473,325 492,404 511,419 530,425 549,425 568,425 587,425 606,425 625,425 " stroke="#911EB4"/>
<polyline fill="none" opacity="1" points="74,41 93,41 112,41 131,41 150,41 169,41 188,41 207,41 226,41 245,41 264,41 283,41 302,41 321,41 340,41 359,41 378,41 397,41 416,41 435,58 454,171 473,320 492,401 511,422 530,425 549,425 568,425 587,425 606,425 625,425 " stroke="#46F0F0"/>
<polyline fill="none" opacity="1" points="74,41 93,41 112,41 131,41 150,41 169,41 188,41 207,41 226,41 245,41 264,41 283,41 302,41 321,41 340,41 359,41 378,41 397,41 416,41 435,46 454,192 473,340 492,409 511,422 530,425 549,425 568,425 587,425 606,425 625,425 " stroke="#F032E6"/>
<rect fill="#1F1F1F" height="172" opacity="0.8" stroke="none" width="91" x="55" y="147"/>
<rect fill="none" height="172" opacity="1" stroke="#BFBFBF" width="91" x="55" y="147"/>
<text fill="#BFBFBF" font-famliy="Arial" font-size="16" opacity="1" x="95" y="168">
N=20
</text>
<text fill="#BFBFBF" font-famliy="Arial" font-size="16" opacity="1" x="95" y="188">
N=40
</text>
<text fill="#BFBFBF" font-famliy="Arial" font-size="16" opacity="1" x="95" y="208">
N=60
</text>
<text fill="#BFBFBF" font-famliy="Arial" font-size="16" opacity="1" x="95" y="228">
N=80
</text>
<text fill="#BFBFBF" font-famliy="Arial" font-size="16" opacity="1" x="95" y="248">
N=100
</text>
<text fill="#BFBFBF" font-famliy="Arial" font-size="16" opacity="1" x="95" y="268">
N=120
</text>
<text fill="#BFBFBF" font-famliy="Arial" font-size="16" opacity="1" x="95" y="288">
N=140
</text>
<text fill="#BFBFBF" font-famliy="Arial" font-size="16" opacity="1" x="95" y="308">
N=160
</text>
<polyline fill="none" opacity="1" points="65,163 85,163 " stroke="#E6194B"/>
<polyline fill="none" opacity="1" points="65,183 85,183 " stroke="#3CB44B"/>
<polyline fill="none" opacity="1" points="65,203 85,203 " stroke="#FFE119"/>
<polyline fill="none" opacity="1" points="65,223 85,223 " stroke="#0082C8"/>
<polyline fill="none" opacity="1" points="65,243 85,243 " stroke="#F58230"/>
<polyline fill="none" opacity="1" points="65,263 85,263 " stroke="#911EB4"/>
<polyline fill="none" opacity="1" points="65,283 85,283 " stroke="#46F0F0"/>
<polyline fill="none" opacity="1" points="65,303 85,303 " stroke="#F032E6"/>
</svg>