<svg viewBox="0 0 640 480" xmlns="http://www.w3.org/2000/svg">
<rect fill="#1F1F1F" height="480" opacity="1" stroke="none" width="640" x="0" y="0"/>
<text fill="#BFBFBF" font-famliy="Arial" font-size="30" opacity="1" x="211" y="30">
3-SAT satisfiability
</text>
<text fill="#BFBFBF" font-famliy="Arial" font-size="16" opacity="1" x="328" y="474">
M / N
</text>
<text fill="#BFBFBF" font-famliy="Arial" font-size="16" opacity="1" transform="rotate(270, 5, 273)" x="5" y="284">
% satisfiable
</text>
<polyline fill="none" opacity="1" points="55,425 635,425 " stroke="#BFBFBF"/>
<polyline fill="none" opacity="1" points="150,425 150,430 " stroke="#BFBFBF"/>
<text fill="#BFBFBF" font-famliy="Arial" font-size="16" opacity="1" x="148" y="446">
1
</text>
<polyline fill="none" opacity="1" points="245,425 245,430 " stroke="#BFBFBF"/>
<text fill="#BFBFBF" font-famliy="Arial" font-size="16" opacity="1" x="241" y="446">
2
</text>
<polyline fill="none" opacity="1" points="340,425 340,430 " stroke="#BFBFBF"/>
<text fill="#BFBFBF" font-famliy="Arial" font-size="16" opacity="1" x="336" y="446">
3
</text>
<polyline fill="none" opacity="1" points="435,425 435,430 " stroke="#BFBFBF"/>
<text fill="#BFBFBF" font-famliy="Arial" font-size="16" opacity="1" x="431" y="446">
4
</text>
<polyline fill="none" opacity="1" points="530,425 530,430 " stroke="#BFBFBF"/>
<text fill="#BFBFBF" font-famliy="Arial" font-size="16" opacity="1" x="526" y="446">
5
</text>
<polyline fill="none" opacity="1" points="625,425 625,430 " stroke="#BFBFBF"/>
<text fill="#BFBFBF" font-famliy="Arial" font-size="16" opacity="1" x="621" y="446">
6
</text>
<polyline fill="none" opacity="1" points="55,41 55,425 " stroke="#BFBFBF"/>
<text fill="#BFBFBF" font-famliy="Arial" font-size="16" opacity="1" x="25" y="238">
0.5
</text>
<polyline fill="none" opacity="1" points="50,233 55,233 " stroke="#BFBFBF"/>
<text fill="#BFBFBF" font-famliy="Arial" font-size="16" opacity="1" x="26" y="46">
1.0
</text>
<polyline fill="none" opacity="1" points="50,41 55,41 " stroke="#BFBFBF"/>
<polyline fill="none" opacity="1" points="74,41 93,41 112,41 131,41 150,41 169,41 188,41 207,41 226,41 245,41 264,41 283,41 302,41 321,41 340,41 359,51 378,46 397,56 416,97 435,115 454,174 473,199 492,284 511,289 530,327 549,363 568,378 587,384 606,391 625,412 " stroke="#E6194B"/>
<polyline fill="none" opacity="1" points="74,41 93,41 112,41 131,41 150,41 169,41 188,41 207,41 226,41 245,41 264,41 283,41 302,41 321,41 340,41 359,48 378,46 397,71 416,99 435,156 454,238 473,281 492,332 511,389 530,404 549,417 568,417 587,425 606,422 625,422 " stroke="#3CB44B"/>
<polyline fill="none" opacity="1" points="74,41 93,41 112,41 131,41 150,41 169,41 188,41 207,41 226,41 245,41 264,41 283,41 302,41 321,41 340,41 359,43 378,56 397,76 416,102 435,199 454,286 473,343 492,381 511,414 530,414 549,422 568,425 587,422 606,425 625,425 " stroke="#FFE119"/>
<polyline fill="none" opacity="1" points="74,41 93,41 112,41 131,41 150,41 169,41 188,41 207,41 226,41 245,41 264,41 283,41 302,41 321,41 340,41 359,46 378,51 397,81 416,120 435,215 454,299 473,343 492,394 511,419 530,417 549,422 568,425 587,425 606,425 625,425 " stroke="#0082C8"/>
<polyline fill="none" opacity="1" points="74,41 93,41 112,41 131,41 150,41 169,41 188,41 207,41 226,41 245,41 264,41 283,41 302,41 321,41 340,43 359,43 378,66 397,99 416,148 435,273 454,317 473,394 492,417 511,422 530,425 549,425 568,425 587,425 606,425 625,425 " stroke="#F58230"/>
<polyline fill="none" opacity="1" points="74,41 93,41 112,41 131,41 150,41 169,41 188,41 207,41 226,41 245,41 264,41 283,41 302,41 321,41 340,41 359,43 378,51 397,97 416,181 435,271 454,332 473,391 492,417 511,425 530,425 549,425 568,425 587,425 606,425 625,425 " stroke="#911EB4"/>
<rect fill="#1F1F1F" height="132" opacity="0.8" stroke="none" width="91" x="55" y="167"/>
<rect fill="none" height="132" opacity="1" stroke="#BFBFBF" width="91" x="55" y="167"/>
<text fill="#BFBFBF" font-famliy="Arial" font-size="16" opacity="1" x="95" y="188">
N=20
</text>
<text fill="#BFBFBF" font-famliy="Arial" font-size="16" opacity="1" x="95" y="208">
N=40
</text>
<text fill="#BFBFBF" font-famliy="Arial" font-size="16" opacity="1" x="95" y="228">
N=60
</text>
<text fill="#BFBFBF" font-famliy="Arial" font-size="16" opacity="1" x="95" y="248">
N=80
</text>
<text fill="#BFBFBF" font-famliy="Arial" font-size="16" opacity="1" x="95" y="268">
N=100
</text>
<text fill="#BFBFBF" font-famliy="Arial" font-size="16" opacity="1" x="95" y="288">
N=120
</text>
<polyline fill="none" opacity="1" points="65,183 85,183 " stroke="#E6194B"/>
<polyline fill="none" opacity="1" points="65,203 85,203 " stroke="#3CB44B"/>
<polyline fill="none" opacity="1" points="65,223 85,223 " stroke="#FFE119"/>
<polyline fill="none" opacity="1" points="65,243 85,243 " stroke="#0082C8"/>
<polyline fill="none" opacity="1" points="65,263 85,263 " stroke="#F58230"/>
<polyline fill="none" opacity="1" points="65,283 85,283 " stroke="#911EB4"/>
</svg>